%YAML 1.1
%TAG !u! tag:unity3d.com,2011:
--- !u!74 &7400000
AnimationClip:
  m_ObjectHideFlags: 0
  m_CorrespondingSourceObject: {fileID: 0}
  m_PrefabInstance: {fileID: 0}
  m_PrefabAsset: {fileID: 0}
  m_Name: Die
  serializedVersion: 6
  m_Legacy: 0
  m_Compressed: 0
  m_UseHighQualityCurve: 1
  m_RotationCurves: []
  m_CompressedRotationCurves: []
  m_EulerCurves: []
  m_PositionCurves: []
  m_ScaleCurves: []
  m_FloatCurves: []
  m_PPtrCurves:
  - curve:
    - time: 0
      value: {fileID: -4241635684806205602, guid: 1478c6e43951912498bdd5f3230146a2, type: 3}
    - time: 0.05
      value: {fileID: 5641638529897069760, guid: 1478c6e43951912498bdd5f3230146a2, type: 3}
    - time: 0.1
      value: {fileID: 203894707262023572, guid: 1478c6e43951912498bdd5f3230146a2, type: 3}
    - time: 0.15
      value: {fileID: -2011412612036983366, guid: 1478c6e43951912498bdd5f3230146a2, type: 3}
    - time: 0.2
      value: {fileID: 2053719668135419293, guid: 1478c6e43951912498bdd5f3230146a2, type: 3}
    - time: 0.25
      value: {fileID: -6415160527855421042, guid: 1478c6e43951912498bdd5f3230146a2, type: 3}
    - time: 0.3
      value: {fileID: -8265649554163657122, guid: 1478c6e43951912498bdd5f3230146a2, type: 3}
    - time: 0.35
      value: {fileID: -6367560908665664636, guid: 59c5bf4fb21a38f4abb71529bd9beabf, type: 3}
    attribute: m_Sprite
    path: 
    classID: 212
    script: {fileID: 0}
  m_SampleRate: 20
  m_WrapMode: 0
  m_Bounds:
    m_Center: {x: 0, y: 0, z: 0}
    m_Extent: {x: 0, y: 0, z: 0}
  m_ClipBindingConstant:
    genericBindings:
    - serializedVersion: 2
      path: 0
      attribute: 0
      script: {fileID: 0}
      typeID: 212
      customType: 23
      isPPtrCurve: 1
    pptrCurveMapping:
    - {fileID: -4241635684806205602, guid: 1478c6e43951912498bdd5f3230146a2, type: 3}
    - {fileID: 5641638529897069760, guid: 1478c6e43951912498bdd5f3230146a2, type: 3}
    - {fileID: 203894707262023572, guid: 1478c6e43951912498bdd5f3230146a2, type: 3}
    - {fileID: -2011412612036983366, guid: 1478c6e43951912498bdd5f3230146a2, type: 3}
    - {fileID: 2053719668135419293, guid: 1478c6e43951912498bdd5f3230146a2, type: 3}
    - {fileID: -6415160527855421042, guid: 1478c6e43951912498bdd5f3230146a2, type: 3}
    - {fileID: -8265649554163657122, guid: 1478c6e43951912498bdd5f3230146a2, type: 3}
    - {fileID: -6367560908665664636, guid: 59c5bf4fb21a38f4abb71529bd9beabf, type: 3}
  m_AnimationClipSettings:
    serializedVersion: 2
    m_AdditiveReferencePoseClip: {fileID: 0}
    m_AdditiveReferencePoseTime: 0
    m_StartTime: 0
    m_StopTime: 0.4
    m_OrientationOffsetY: 0
    m_Level: 0
    m_CycleOffset: 0
    m_HasAdditiveReferencePose: 0
    m_LoopTime: 0
    m_LoopBlend: 0
    m_LoopBlendOrientation: 0
    m_LoopBlendPositionY: 0
    m_LoopBlendPositionXZ: 0
    m_KeepOriginalOrientation: 0
    m_KeepOriginalPositionY: 1
    m_KeepOriginalPositionXZ: 0
    m_HeightFromFeet: 0
    m_Mirror: 0
  m_EditorCurves: []
  m_EulerEditorCurves: []
  m_HasGenericRootTransform: 0
  m_HasMotionFloatCurves: 0
  m_Events: []
