[api-updater (non-obsolete-error-filter)] 7/5/2022 7:46:53 PM : Starting D:/Downloads/Unity/Unity/2020.3.31f1/Editor/Data/Tools/ScriptUpdater/APIUpdater.NonObsoleteApiUpdaterDetector.exe
[api-updater (non-obsolete-error-filter)] 
----------------------------------
jit/startup time      : 1276.8507ms
moved types parse time: 48ms
candidates parse time : 1ms
C# parse time         : 715ms
candidates check time : 28ms
console write time    : 1ms

[api-updater (non-obsolete-error-filter)] 7/7/2022 7:02:13 PM : Starting D:/Downloads/Unity/Unity/2020.3.31f1/Editor/Data/Tools/ScriptUpdater/APIUpdater.NonObsoleteApiUpdaterDetector.exe
[api-updater (non-obsolete-error-filter)] Exception caught while loading types from D:\Downloads\Game\GDC-Project\GameSummer\Library\ScriptAssemblies\Unity.CollabProxy.Editor.dll (some types may not be loaded)
	Exception of type 'System.Reflection.ReflectionTypeLoadException' was thrown.
	  at (wrapper managed-to-native) System.Reflection.Assembly.GetTypes(System.Reflection.Assembly,bool)
  at System.Reflection.Assembly.GetTypes () [0x00000] in <695d1cc93cca45069c528c15c9fdd749>:0 
  at APIUpdater.NonObsoleteApiUpdaterDetector.ExtraInfoParser+<LoadTypesWithMovedFromAttributeAsync>d__3.MoveNext () [0x000c8] in <68bff7873e0e4aa69a14dfc30bebbe3e>:0 
	Could not load file or assembly 'UnityEditor.CoreModule, Version=0.0.0.0, Culture=neutral, PublicKeyToken=null' or one of its dependencies.

[api-updater (non-obsolete-error-filter)] Exception caught while loading types from D:\Downloads\Game\GDC-Project\GameSummer\Library\ScriptAssemblies\Unity.TextMeshPro.Editor.dll (some types may not be loaded)
	Exception of type 'System.Reflection.ReflectionTypeLoadException' was thrown.
	  at (wrapper managed-to-native) System.Reflection.Assembly.GetTypes(System.Reflection.Assembly,bool)
  at System.Reflection.Assembly.GetTypes () [0x00000] in <695d1cc93cca45069c528c15c9fdd749>:0 
  at APIUpdater.NonObsoleteApiUpdaterDetector.ExtraInfoParser+<LoadTypesWithMovedFromAttributeAsync>d__3.MoveNext () [0x000c8] in <68bff7873e0e4aa69a14dfc30bebbe3e>:0 
	Could not load file or assembly 'UnityEditor.CoreModule, Version=0.0.0.0, Culture=neutral, PublicKeyToken=null' or one of its dependencies.

[api-updater (non-obsolete-error-filter)] 
----------------------------------
jit/startup time      : 953.315ms
moved types parse time: 47ms
candidates parse time : 0ms
C# parse time         : 797ms
candidates check time : 39ms
console write time    : 1ms

[api-updater (non-obsolete-error-filter)] 7/8/2022 9:06:40 PM : Starting D:/Downloads/Unity/Unity/2020.3.31f1/Editor/Data/Tools/ScriptUpdater/APIUpdater.NonObsoleteApiUpdaterDetector.exe
[api-updater (non-obsolete-error-filter)] 
----------------------------------
jit/startup time      : 828.8592ms
moved types parse time: 46ms
candidates parse time : 0ms
C# parse time         : 652ms
candidates check time : 37ms
console write time    : 1ms

[api-updater (non-obsolete-error-filter)] 7/9/2022 7:35:48 AM : Starting D:/Downloads/Unity/Unity/2020.3.31f1/Editor/Data/Tools/ScriptUpdater/APIUpdater.NonObsoleteApiUpdaterDetector.exe
[api-updater (non-obsolete-error-filter)] 
----------------------------------
jit/startup time      : 1055.3909ms
moved types parse time: 49ms
candidates parse time : 0ms
C# parse time         : 719ms
candidates check time : 47ms
console write time    : 1ms

[api-updater (non-obsolete-error-filter)] 7/9/2022 7:48:50 AM : Starting D:/Downloads/Unity/Unity/2020.3.31f1/Editor/Data/Tools/ScriptUpdater/APIUpdater.NonObsoleteApiUpdaterDetector.exe
[api-updater (non-obsolete-error-filter)] 
----------------------------------
jit/startup time      : 63.8197ms
moved types parse time: 41ms
candidates parse time : 0ms
C# parse time         : 180ms
candidates check time : 44ms
console write time    : 0ms

[api-updater (non-obsolete-error-filter)] 7/12/2022 8:45:23 PM : Starting D:/Downloads/Unity/Unity/2020.3.31f1/Editor/Data/Tools/ScriptUpdater/APIUpdater.NonObsoleteApiUpdaterDetector.exe
[api-updater (non-obsolete-error-filter)] 
----------------------------------
jit/startup time      : 929.2412ms
moved types parse time: 50ms
candidates parse time : 1ms
C# parse time         : 741ms
candidates check time : 38ms
console write time    : 1ms

[api-updater (non-obsolete-error-filter)] 7/12/2022 10:53:31 PM : Starting D:/Downloads/Unity/Unity/2020.3.31f1/Editor/Data/Tools/ScriptUpdater/APIUpdater.NonObsoleteApiUpdaterDetector.exe
[api-updater (non-obsolete-error-filter)] 
----------------------------------
jit/startup time      : 161.7067ms
moved types parse time: 53ms
candidates parse time : 0ms
C# parse time         : 203ms
candidates check time : 33ms
console write time    : 0ms

[api-updater (non-obsolete-error-filter)] 7/13/2022 9:02:51 AM : Starting D:/Downloads/Unity/Unity/2020.3.31f1/Editor/Data/Tools/ScriptUpdater/APIUpdater.NonObsoleteApiUpdaterDetector.exe
[api-updater (non-obsolete-error-filter)] 
----------------------------------
jit/startup time      : 1485.0149ms
moved types parse time: 53ms
candidates parse time : 0ms
C# parse time         : 743ms
candidates check time : 36ms
console write time    : 1ms

[api-updater (non-obsolete-error-filter)] 7/15/2022 3:06:09 PM : Starting D:/Downloads/Unity/Unity/2020.3.31f1/Editor/Data/Tools/ScriptUpdater/APIUpdater.NonObsoleteApiUpdaterDetector.exe
[api-updater (non-obsolete-error-filter)] 
----------------------------------
jit/startup time      : 1004.2738ms
moved types parse time: 48ms
candidates parse time : 1ms
C# parse time         : 650ms
candidates check time : 25ms
console write time    : 1ms

[api-updater (non-obsolete-error-filter)] 7/16/2022 10:03:00 AM : Starting D:/Downloads/Unity/Unity/2020.3.31f1/Editor/Data/Tools/ScriptUpdater/APIUpdater.NonObsoleteApiUpdaterDetector.exe
[api-updater (non-obsolete-error-filter)] 
----------------------------------
jit/startup time      : 1193.672ms
moved types parse time: 46ms
candidates parse time : 1ms
C# parse time         : 611ms
candidates check time : 34ms
console write time    : 0ms

[api-updater (non-obsolete-error-filter)] 7/16/2022 10:03:41 AM : Starting D:/Downloads/Unity/Unity/2020.3.31f1/Editor/Data/Tools/ScriptUpdater/APIUpdater.NonObsoleteApiUpdaterDetector.exe
[api-updater (non-obsolete-error-filter)] 
----------------------------------
jit/startup time      : 66.9796ms
moved types parse time: 39ms
candidates parse time : 1ms
C# parse time         : 159ms
candidates check time : 34ms
console write time    : 0ms

[api-updater (non-obsolete-error-filter)] 7/16/2022 10:03:56 AM : Starting D:/Downloads/Unity/Unity/2020.3.31f1/Editor/Data/Tools/ScriptUpdater/APIUpdater.NonObsoleteApiUpdaterDetector.exe
[api-updater (non-obsolete-error-filter)] 
----------------------------------
jit/startup time      : 55.5626ms
moved types parse time: 47ms
candidates parse time : 1ms
C# parse time         : 153ms
candidates check time : 32ms
console write time    : 0ms

[api-updater (non-obsolete-error-filter)] 7/16/2022 12:33:30 PM : Starting D:/Downloads/Unity/Unity/2020.3.31f1/Editor/Data/Tools/ScriptUpdater/APIUpdater.NonObsoleteApiUpdaterDetector.exe
[api-updater (non-obsolete-error-filter)] 
----------------------------------
jit/startup time      : 1307.0185ms
moved types parse time: 44ms
candidates parse time : 1ms
C# parse time         : 682ms
candidates check time : 34ms
console write time    : 0ms

[api-updater (non-obsolete-error-filter)] 7/17/2022 5:47:59 AM : Starting D:/Downloads/Unity/Unity/2020.3.31f1/Editor/Data/Tools/ScriptUpdater/APIUpdater.NonObsoleteApiUpdaterDetector.exe
[api-updater (non-obsolete-error-filter)] 
----------------------------------
jit/startup time      : 1886.2493ms
moved types parse time: 50ms
candidates parse time : 1ms
C# parse time         : 1506ms
candidates check time : 52ms
console write time    : 1ms

[api-updater (non-obsolete-error-filter)] 7/17/2022 5:13:22 PM : Starting D:/Downloads/Unity/Unity/2020.3.31f1/Editor/Data/Tools/ScriptUpdater/APIUpdater.NonObsoleteApiUpdaterDetector.exe
[api-updater (non-obsolete-error-filter)] 
----------------------------------
jit/startup time      : 2248.4686ms
moved types parse time: 79ms
candidates parse time : 2ms
C# parse time         : 1415ms
candidates check time : 90ms
console write time    : 1ms

[api-updater (non-obsolete-error-filter)] 7/18/2022 5:57:00 AM : Starting D:/Downloads/Unity/Unity/2020.3.31f1/Editor/Data/Tools/ScriptUpdater/APIUpdater.NonObsoleteApiUpdaterDetector.exe
[api-updater (non-obsolete-error-filter)] 
----------------------------------
jit/startup time      : 945.8259ms
moved types parse time: 48ms
candidates parse time : 0ms
C# parse time         : 730ms
candidates check time : 43ms
console write time    : 1ms

[api-updater (non-obsolete-error-filter)] 7/18/2022 6:02:00 AM : Starting D:/Downloads/Unity/Unity/2020.3.31f1/Editor/Data/Tools/ScriptUpdater/APIUpdater.NonObsoleteApiUpdaterDetector.exe
[api-updater (non-obsolete-error-filter)] 
----------------------------------
jit/startup time      : 83.7725ms
moved types parse time: 43ms
candidates parse time : 0ms
C# parse time         : 189ms
candidates check time : 40ms
console write time    : 0ms

[api-updater (non-obsolete-error-filter)] 7/18/2022 4:19:30 PM : Starting D:/Downloads/Unity/Unity/2020.3.31f1/Editor/Data/Tools/ScriptUpdater/APIUpdater.NonObsoleteApiUpdaterDetector.exe
[api-updater (non-obsolete-error-filter)] 
----------------------------------
jit/startup time      : 1289.0585ms
moved types parse time: 49ms
candidates parse time : 0ms
C# parse time         : 699ms
candidates check time : 37ms
console write time    : 1ms

